name	background color	border color	program	texture	texture color	stretch
style_menu_button	menu_button		ortho_pos			1
style_menu_button_disabled	menu_button_disabled		ortho_pos			1
style_menu_button_hover	menu_button_hover		ortho_pos			1
style_menu_window	menu_window		ortho_pos			1
style_menu_textbox	menu_button_dark	menu_button	ortho_pos			1
style_menu_box_bg0	menu_button_bg0		ortho_pos			1
style_menu_box_bg1	menu_button_bg1		ortho_pos			1
style_menu_hover	highlight		ortho_pos			1
style_hud_bg	dark		ortho_pos			1
style_hud_died_bg	died		ortho_pos			1
style_buttonbar_slot			ortho_pos_uv	textures/hud/slot_small.webp		1
style_hud_slot			ortho_pos_uv	textures/hud/slot.webp		1
style_hud_slot_disabled			ortho_pos_uv	textures/hud/slot_disabled.webp		1
style_hud_slot_belt			ortho_pos_uv	textures/hud/slot_small.webp		1
style_hud_slot_belt_disabled			ortho_pos_uv	textures/hud/slot_small_disabled.webp		1
style_hud_slot_alpha			ortho_pos_uv	textures/hud/slot_border.webp	inventory_slot_trans	1
style_hud_slot_alpha_ring			ortho_pos_uv	textures/hud/slot_ring.webp	inventory_slot_trans	1
style_hud_slot_alpha_amulet			ortho_pos_uv	textures/hud/slot_amulet.webp	inventory_slot_trans	1
style_hud_slot_alpha_relic			ortho_pos_uv	textures/hud/slot_relic.webp	inventory_slot_trans	1
style_move_items_hover			ortho_pos_uv	textures/hud/move_items_hover.webp	inventory_slot_trans	1
style_hud_item_tooltip_bg	item_tooltip_bg		ortho_pos			1
style_hud_recent_bg	recent_bg		ortho_pos			1
style_minigame_bg	minigame_bg		ortho_pos			1
style_equipment_bg	equipment_bg		ortho_pos			1
style_tabs_bg	equipment_bg_dark		ortho_pos			1
style_black	black		ortho_pos			1
style_mapname_bg	mapname_bg		ortho_pos			1
style_relic_bg	relic_bg		ortho_pos			1
style_relic_hover	relic_hover		ortho_pos			1
style_hud_experience	experience_bg	experience_border	ortho_pos			1
